[gd_scene load_steps=3 format=2]

[ext_resource path="res://assets/theme.tres" type="Theme" id=1]

[sub_resource type="GDScript" id=2]
script/source = "extends PopupDialog

signal done

var success : bool = false

onready var _password_edit : LineEdit = $VBoxContainer/PasswordEdit


func _on_OK_pressed():
	if _password_edit.text.casecmp_to(Options.savedPassword) == 0:
		success = true
	visible = false
	emit_signal(\"done\")


func _on_PasswordDialog_about_to_show():
	success = false
	_password_edit.text = \"\"
	_password_edit.grab_focus()
	if Options.savedPassword.empty():
		success = true
		call_deferred(\"emit_signal\", \"done\")
		set_deferred(\"visible\", false)
"

[node name="PasswordDialog" type="PopupDialog"]
anchor_left = 0.5
anchor_top = 0.5
anchor_right = 0.5
anchor_bottom = 0.5
margin_left = -129.0
margin_top = -75.0
margin_right = 129.0
margin_bottom = 75.0
grow_horizontal = 2
grow_vertical = 2
size_flags_vertical = 0
theme = ExtResource( 1 )
popup_exclusive = true
script = SubResource( 2 )

[node name="VBoxContainer" type="VBoxContainer" parent="."]
anchor_right = 1.0
anchor_bottom = 1.0
margin_left = 8.0
margin_top = 8.0
margin_right = -8.0
margin_bottom = -8.0

[node name="Label" type="Label" parent="VBoxContainer"]
margin_right = 242.0
margin_bottom = 28.0
text = "PASSWORD_ASK"
align = 1
valign = 1

[node name="PasswordEdit" type="LineEdit" parent="VBoxContainer"]
unique_name_in_owner = true
margin_top = 32.0
margin_right = 242.0
margin_bottom = 70.0
secret = true

[node name="OK" type="Button" parent="VBoxContainer"]
margin_top = 74.0
margin_right = 242.0
margin_bottom = 122.0
text = "OK"

[connection signal="about_to_show" from="." to="." method="_on_PasswordDialog_about_to_show"]
[connection signal="pressed" from="VBoxContainer/OK" to="." method="_on_OK_pressed"]
